[
    "kero",
    "fresh",
    "majin",
    "smallfry",
    "soda-pop",
    "fuss-erect",
    "expurgated",
    "jeans",
    "penguin-shoots-alphabet-lore",
    "ron",
    "mario-pissing",
    "hungry",
    "crisis",
    "force-a-nature",
    "sensory-overload",
    "swag-messiah",
    "mrow-silly",
    "peanuts"
]